<svg id="icon" xmlns="http://www.w3.org/2000/svg" width="41.969" height="34" viewBox="0 0 41.969 34">
  <defs>
    <style>
      .cls-1 {
        fill: #e11a27;
      }

      .cls-1, .cls-2 {
        fill-rule: evenodd;
      }

      .cls-2 {
        fill: #fff;
      }
    </style>
  </defs>
  <path id="Фигура_20" data-name="Фигура 20" class="cls-1" d="M793.851,4087.02c-0.4,4.26-4.091,7.38-7.893,8.94a10.7,10.7,0,0,1-6.276.87c-2.587-.57-4.2-2.61-6.308-4-5.022-3.29-8.655,1.91-13.378,2.8-4.47.85-7.955-3.26-8-7.37-0.026-2.58,1.081-4.51,2.474-6.6a15.232,15.232,0,0,0,2.787-7.32c0.166-2.3-.119-4.7.854-6.87a7.841,7.841,0,0,1,5.706-4.25c5.469-1.13,10.079,2.31,14.073,5.47,2.232,1.77,4.518,3.47,6.816,5.15,2.342,1.72,4.817,3.33,6.652,5.6a10.5,10.5,0,0,1,2.489,7.58C793.367,4092.17,794.3,4082.26,793.851,4087.02Z" transform="translate(-752 -4063)"/>
  <path id="fa-envelope" class="cls-2" d="M778.219,4079.23q-2.564,1.725-3.891,2.7-0.446.33-.723,0.51a4.849,4.849,0,0,1-.738.38,2.4,2.4,0,0,1-.859.19h-0.016a2.4,2.4,0,0,1-.859-0.19,4.755,4.755,0,0,1-.738-0.38q-0.277-.18-0.723-0.51-1.054-.78-3.883-2.7a4.089,4.089,0,0,1-.789-0.69v6.22a1.241,1.241,0,0,0,1.25,1.25h11.5a1.241,1.241,0,0,0,1.25-1.25v-6.22a4.636,4.636,0,0,1-.781.69h0Zm0.41-3.87a1.192,1.192,0,0,0-.879-0.37h-11.5a1.094,1.094,0,0,0-.926.41,1.572,1.572,0,0,0-.324,1.01,1.819,1.819,0,0,0,.43,1.07,3.8,3.8,0,0,0,.914.91q0.265,0.18,1.6,1.11c0.891,0.62,1.573,1.1,2.047,1.43,0.052,0.04.163,0.12,0.332,0.24l0.422,0.3a4.678,4.678,0,0,0,.406.25,2.259,2.259,0,0,0,.45.22,1.463,1.463,0,0,0,.39.07h0.016a1.47,1.47,0,0,0,.39-0.07,2.259,2.259,0,0,0,.45-0.22c0.158-.09.294-0.17,0.406-0.25l0.422-.3c0.169-.12.28-0.2,0.332-0.24q0.718-.495,3.656-2.54a3.738,3.738,0,0,0,.953-0.97,2.059,2.059,0,0,0,.383-1.18A1.191,1.191,0,0,0,778.629,4075.36Z" transform="translate(-752 -4063)"/>
</svg>
