<svg id="icon" xmlns="http://www.w3.org/2000/svg" width="35" height="41" viewBox="0 0 35 41">
  <defs>
    <style>
      .cls-1 {
        fill: #e11a27;
      }

      .cls-1, .cls-2 {
        fill-rule: evenodd;
      }

      .cls-2 {
        fill: #fff;
      }
    </style>
  </defs>
  <path id="Фигура_19" data-name="Фигура 19" class="cls-1" d="M791.708,4029.23c1.346,5.13-2.127,9.23-7.114,9.02-2.431-.1-4.837-0.85-7.282-0.55-2.731.33-4.88,2.18-6.864,3.99-3.053,2.8-8.511,6.84-11.94,2.18-3.1-4.22-.619-10.8.365-15.35,1.868-8.66,4.811-24.42,16.468-23.48,5.862,0.47,7.906,5.8,9.169,10.91a15.906,15.906,0,0,0,2.936,6.65c1.8,2.12,3.515,3.78,4.262,6.63C792.488,4032.2,791.153,4027.11,791.708,4029.23Z" transform="translate(-757 -4005)"/>
  <path id="fa-phone" class="cls-2" d="M780.957,4027.85a1.769,1.769,0,0,0-.755-0.53c-0.126-.07-0.3-0.17-0.537-0.29s-0.442-.25-0.63-0.35-0.366-.21-0.532-0.31c-0.026-.02-0.109-0.08-0.248-0.17a2.9,2.9,0,0,0-.353-0.22,0.75,0.75,0,0,0-.283-0.07,0.839,0.839,0,0,0-.5.29,5.1,5.1,0,0,0-.546.61,6.507,6.507,0,0,1-.526.62,0.744,0.744,0,0,1-.457.28,0.766,0.766,0,0,1-.224-0.05c-0.089-.03-0.157-0.06-0.2-0.08s-0.126-.07-0.239-0.14-0.175-.11-0.189-0.12a10.582,10.582,0,0,1-2.334-1.72,10.448,10.448,0,0,1-1.729-2.34c-0.006-.01-0.044-0.07-0.114-0.19a2.528,2.528,0,0,1-.139-0.24,1.5,1.5,0,0,1-.084-0.2,0.636,0.636,0,0,1-.05-0.22,0.744,0.744,0,0,1,.283-0.46,6.007,6.007,0,0,1,.616-0.53,4.325,4.325,0,0,0,.616-0.54,0.839,0.839,0,0,0,.283-0.5,0.617,0.617,0,0,0-.07-0.28,2.548,2.548,0,0,0-.213-0.36c-0.1-.13-0.154-0.22-0.174-0.24q-0.149-.255-0.308-0.54-0.159-.27-0.348-0.63c-0.125-.23-0.225-0.41-0.3-0.53a1.7,1.7,0,0,0-.526-0.76,0.553,0.553,0,0,0-.209-0.03,3.751,3.751,0,0,0-.7.1,4.587,4.587,0,0,0-.68.21,2.645,2.645,0,0,0-1.053,1.21,3.848,3.848,0,0,0-.507,1.85,3.682,3.682,0,0,0,.035.52,4.092,4.092,0,0,0,.124.57c0.059,0.22.108,0.37,0.144,0.47s0.1,0.29.2,0.56,0.159,0.42.178,0.48a8.992,8.992,0,0,0,.825,1.74,16.65,16.65,0,0,0,4.768,4.77,8.748,8.748,0,0,0,1.739.82q0.088,0.03.486,0.18l0.552,0.21c0.1,0.03.259,0.08,0.471,0.14a3.746,3.746,0,0,0,.572.12,2.965,2.965,0,0,0,.521.04,3.835,3.835,0,0,0,1.848-.51,2.662,2.662,0,0,0,1.212-1.05,3.984,3.984,0,0,0,.208-0.68,3.241,3.241,0,0,0,.1-0.7,0.584,0.584,0,0,0-.03-0.21h0Z" transform="translate(-757 -4005)"/>
</svg>
